aiofiles==23.1.0
aiohttp==3.8.4
aiosignal==1.3.1
altair==4.2.2
anyio==3.6.2
argon2-cffi==21.3.0
argon2-cffi-bindings==21.2.0
arrow==1.2.3
asttokens==2.2.1
async-generator==1.10
async-timeout==4.0.2
attrs==22.2.0
backcall==0.2.0
beautifulsoup4==4.11.2
bleach==6.0.0
certifi==2022.12.7
cffi==1.15.1
charset-normalizer==3.1.0
click==8.1.3
colorama==0.4.6
comm==0.1.2
contourpy==1.0.7
cycler==0.11.0
debugpy==1.6.6
decorator==5.1.1
defusedxml==0.7.1
deprecation==2.1.0
entrypoints==0.4
et-xmlfile==1.1.0
exceptiongroup==1.1.1
executing==1.2.0
fastapi==0.95.0
fastjsonschema==2.16.3
ffmpeg-python==0.2.0
ffmpy==0.3.0
filelock==3.10.0
fonttools==4.39.2
fqdn==1.5.1
frozenlist==1.3.3
fsspec==2023.3.0
future==0.18.3
future-fstrings==1.2.0
google==3.0.0
gradio==3.22.1
gTTS==2.3.1
h11==0.14.0
httpcore==0.16.3
httpx==0.23.3
huggingface-hub==0.13.2
idna==3.4
impala-helper==1.3.0
ipykernel==6.21.3
ipython==8.11.0
ipython-genutils==0.2.0
ipywidgets==8.0.4
isoduration==20.11.0
jedi==0.18.2
Jinja2==3.1.2
jiwer==3.0.0
Js2Py==0.74
jsonpointer==2.3
jsonschema==4.17.3
jupyter==1.0.0
jupyter-console==6.6.3
jupyter-events==0.6.3
jupyter_client==8.0.3
jupyter_core==5.3.0
jupyter_server==2.5.0
jupyter_server_terminals==0.4.4
jupyterlab-pygments==0.2.2
jupyterlab-widgets==3.0.5
kiwisolver==1.4.4
linkify-it-py==2.0.0
llvmlite==0.39.1
lxml==4.9.2
markdown-it-py==2.2.0
markdownify==0.11.6
MarkupSafe==2.1.2
matplotlib==3.7.1
matplotlib-inline==0.1.6
mdit-py-plugins==0.3.3
mdurl==0.1.2
mistune==2.0.5
more-itertools==9.1.0
mpmath==1.3.0
multidict==6.0.4
nbclassic==0.5.3
nbclient==0.7.2
nbconvert==7.2.10
nbformat==5.7.3
nest-asyncio==1.5.6
networkx==3.0
notebook==6.5.3
notebook_shim==0.2.2
numba==0.56.4
numpy==1.23.5
openai==0.27.2
openai-whisper @ git+https://github.com/openai/whisper.git@6dea21fd7f7253bfe450f1e2512a0fe47ee2d258
openpyxl==3.1.2
orjson==3.8.7
outcome==1.2.0
packaging==23.0
pandas==1.5.3
pandocfilters==1.5.0
parso==0.8.3
pdfrw==0.4
pickleshare==0.7.5
pikepdf==7.1.2
Pillow==9.4.0
platformdirs==3.1.1
prometheus-client==0.16.0
prompt-toolkit==3.0.38
psutil==5.9.4
pure-eval==0.2.2
PyAudio==0.2.13
pyChatGPT==0.4.3.3
pycparser==2.21
pydantic==1.10.6
pydub==0.25.1
pyfiglet==0.8.post1
pygame==2.3.0
Pygments==2.14.0
pyjsparser==2.7.1
pyodbc==4.0.35
pyparsing==3.0.9
PyPDF2==3.0.1
PyPDF4==1.27.0
pyrsistent==0.19.3
PySocks==1.7.1
python-dateutil==2.8.2
python-json-logger==2.0.7
python-multipart==0.0.6
pytz==2022.7.1
pytz-deprecation-shim==0.1.0.post0
pywin32==305
pywinpty==2.0.10
PyYAML==6.0
pyzmq==25.0.1
qtconsole==5.4.1
QtPy==2.3.0
rapidfuzz==2.13.7
regex==2022.10.31
requests==2.28.2
rfc3339-validator==0.1.4
rfc3986==1.5.0
rfc3986-validator==0.1.1
scipy==1.10.1
selenium==4.8.2
Send2Trash==1.8.0
six==1.16.0
sniffio==1.3.0
sortedcontainers==2.4.0
soupsieve==2.4
sqlparse==0.4.3
stack-data==0.6.2
starlette==0.26.1
sympy==1.11.1
terminado==0.17.1
tiktoken==0.3.1
tinycss2==1.2.1
toolz==0.12.0
torch==2.0.0
tornado==6.2
tqdm==4.65.0
traitlets==5.9.0
trio==0.22.0
trio-websocket==0.10.1
typing_extensions==4.5.0
tzdata==2022.7
tzlocal==4.3
uc-micro-py==1.0.1
undetected-chromedriver==3.4.6
uri-template==1.2.0
urllib3==1.26.15
uvicorn==0.21.1
Wave==0.0.2
wcwidth==0.2.6
webcolors==1.12
webencodings==0.5.1
websocket-client==1.5.1
websockets==10.4
whisper==1.1.10
widgetsnbextension==4.0.5
wsproto==1.2.0
yarl==1.8.2
